<?xml version="1.0" encoding="UTF-8"?>
<testng-results skipped="0" failed="0" ignored="0" total="2" passed="2">
  <reporter-output>
  </reporter-output>
  <suite name="tests.ApiTest" duration-ms="2144" started-at="2019-11-07T18:03:39 IST" finished-at="2019-11-07T18:03:41 IST">
    <groups>
    </groups>
    <test name="Command line test" duration-ms="2144" started-at="2019-11-07T18:03:39 IST" finished-at="2019-11-07T18:03:41 IST">
      <class name="tests.ApiTest">
        <test-method status="PASS" signature="testLogging()[pri:0, instance:tests.ApiTest@13deb50e]" name="testLogging" duration-ms="1468" started-at="2019-11-07T18:03:39 IST" finished-at="2019-11-07T18:03:40 IST">
          <reporter-output>
          </reporter-output>
        </test-method> <!-- testLogging -->
        <test-method status="PASS" signature="testStatusCode()[pri:0, instance:tests.ApiTest@13deb50e]" name="testStatusCode" duration-ms="648" started-at="2019-11-07T18:03:40 IST" finished-at="2019-11-07T18:03:41 IST">
          <reporter-output>
          </reporter-output>
        </test-method> <!-- testStatusCode -->
      </class> <!-- tests.ApiTest -->
    </test> <!-- Command line test -->
  </suite> <!-- tests.ApiTest -->
</testng-results>
