-------------------------------------------------------------------------------
Test set: tests.ApiTest
-------------------------------------------------------------------------------
Tests run: 2, Failures: 0, Errors: 0, Skipped: 0, Time elapsed: 2.616 sec
