/Users/rchandra/eclipse-workspace/honeycomb/src/test/java/tests/ApiTest.java
/Users/rchandra/eclipse-workspace/honeycomb/src/test/java/Runner/CukeRunner.java
/Users/rchandra/eclipse-workspace/honeycomb/src/test/java/StepsDefs/ApiTestdefs.java
